{
"IsServerNormal":true,
"MaintainAnnouncement":"服务器维护中预计2小时",
"ServerAddress":"116.62.242.85:10002",
"ApkDownloadUrl":"https://gamegather.oss-cn-beijing.aliyuncs.com/kwx.apk",
"IOSDownloadUrl":"itms-services://?action=download-manifest&url=https://gamegather.oss-cn-beijing.aliyuncs.com/manifest.plist",
"Version":1.5,
"ColdUpdateVersion":0,
"ToyGameVersionsArray":[
{
	"Id": 0,
	"Name": "基本配置和热更dll",
	"Version": 1.5,
	"DownloadFolder": "",
	"VersionFile": "Version.txt"
}, {
	"Id": 1000,
	"Name": "通用必下载",
	"Version": 1.4,
	"DownloadFolder": "common",
	"VersionFile": "commonVersion.txt"
}, {
	"Id": 1002,
	"Name": "卡五星",
	"Version": 1.4,
	"DownloadFolder": "cardfivestar",
	"VersionFile": "cardfivestarVersion.txt"
}]
}